\addplot[my_style] coordinates {(71226  , có thể)};
\addplot[my_style] coordinates {(51045  , chúng ta)};
\addplot[my_style] coordinates {(44003  , là một)};
\addplot[my_style] coordinates {(37447  , không thể)};
\addplot[my_style] coordinates {(36887  , không có)};
\addplot[my_style] coordinates {(34809  , không phải)};
\addplot[my_style] coordinates {(34646  , cũng không)};
\addplot[my_style] coordinates {(33990  , như vậy)};
\addplot[my_style] coordinates {(30638  , không biết)};
\addplot[my_style] coordinates {( 29969 , có một)};
\addplot[my_style] coordinates {( 28739 , như thế)};
\addplot[my_style] coordinates {( 26955 , hai người)};
\addplot[my_style] coordinates {( 26722 , chúng tôi)};
\addplot[my_style] coordinates {( 25476 , thế nào )};
\addplot[my_style] coordinates {( 23719 , tại hạ)};
\addplot[my_style] coordinates {( 23494 , bây giờ)};
\addplot[my_style] coordinates {( 22835 , một người)};
\addplot[my_style] coordinates {( 22413 , trong lòng)};
\addplot[my_style] coordinates {( 22188 , là người)};
\addplot[my_style] coordinates {( 22154 , một tiếng)};
\addplot[my_style] coordinates {( 21927 , tất cả)};
\addplot[my_style] coordinates {( 21867 , người ta )};
\addplot[my_style] coordinates {( 21812 , mọi người)};
\addplot[my_style] coordinates {( 20728 , cảm thấy)};
\addplot[my_style] coordinates {( 20527 , một cái)};
\addplot[my_style] coordinates {( 20425 , của mình)};
\addplot[my_style] coordinates {( 20261 , đó là )};
\addplot[my_style] coordinates {( 19622 , phải là)};
\addplot[my_style] coordinates {( 19027 , những người)};
\addplot[my_style] coordinates {( 18836 , lúc này )};
